# Blender v3.0.1 OBJ File: ''
# www.blender.org
o Sphere
v 0.000000 0.980785 -0.195090
v 0.000000 0.923880 -0.382683
v 0.000000 0.831470 -0.555570
v 0.000000 0.707107 -0.707107
v 0.000000 0.555570 -0.831470
v 0.000000 0.382683 -0.923880
v 0.000000 0.195090 -0.980785
v 0.000000 -0.555570 -0.831470
v 0.000000 -0.707107 -0.707107
v 0.000000 -0.831470 -0.555570
v 0.038060 0.980785 -0.191342
v 0.074658 0.923880 -0.375330
v 0.108386 0.831470 -0.544895
v 0.137950 0.707107 -0.693520
v 0.162212 0.555570 -0.815493
v 0.180240 0.382683 -0.906127
v 0.191342 0.195090 -0.961940
v 0.195090 -0.000000 -0.980785
v 0.191342 -0.195090 -0.961940
v 0.180240 -0.382683 -0.906127
v 0.162212 -0.555570 -0.815493
v 0.137950 -0.707107 -0.693520
v 0.108386 -0.831470 -0.544895
v 0.074658 -0.923880 -0.375330
v 0.038060 -0.980785 -0.191342
v 0.074658 0.980785 -0.180240
v 0.146447 0.923880 -0.353553
v 0.212608 0.831470 -0.513280
v 0.270598 0.707107 -0.653281
v 0.318190 0.555570 -0.768178
v 0.353553 0.382683 -0.853553
v 0.375330 0.195090 -0.906127
v 0.382683 -0.000000 -0.923879
v 0.375330 -0.195090 -0.906127
v 0.353553 -0.382683 -0.853553
v 0.318190 -0.555570 -0.768178
v 0.270598 -0.707107 -0.653281
v 0.212608 -0.831470 -0.513280
v 0.146447 -0.923880 -0.353553
v 0.074658 -0.980785 -0.180240
v 0.108386 0.980785 -0.162212
v 0.212608 0.923880 -0.318190
v 0.308658 0.831470 -0.461940
v 0.392848 0.707107 -0.587938
v 0.461940 0.555570 -0.691342
v 0.513280 0.382683 -0.768178
v 0.544895 0.195090 -0.815493
v 0.555570 -0.000000 -0.831469
v 0.544895 -0.195090 -0.815493
v 0.513280 -0.382683 -0.768178
v 0.461940 -0.555570 -0.691342
v 0.392848 -0.707107 -0.587938
v 0.308658 -0.831470 -0.461940
v 0.212608 -0.923880 -0.318190
v 0.108386 -0.980785 -0.162212
v 0.137950 0.980785 -0.137950
v 0.270598 0.923880 -0.270598
v 0.392848 0.831470 -0.392847
v 0.500000 0.707107 -0.500000
v 0.587938 0.555570 -0.587938
v 0.653281 0.382683 -0.653281
v 0.693520 0.195090 -0.693520
v 0.707107 -0.000000 -0.707107
v 0.693520 -0.195090 -0.693520
v 0.653282 -0.382683 -0.653281
v 0.587938 -0.555570 -0.587938
v 0.500000 -0.707107 -0.500000
v 0.392848 -0.831470 -0.392847
v 0.270598 -0.923880 -0.270598
v 0.137950 -0.980785 -0.137950
v 0.162212 0.980785 -0.108386
v 0.318190 0.923880 -0.212607
v 0.461940 0.831470 -0.308658
v 0.587938 0.707107 -0.392847
v 0.691342 0.555570 -0.461940
v 0.768178 0.382683 -0.513280
v 0.815493 0.195090 -0.544895
v 0.831470 -0.000000 -0.555570
v 0.815493 -0.195090 -0.544895
v 0.768178 -0.382683 -0.513280
v 0.691342 -0.555570 -0.461940
v 0.587938 -0.707107 -0.392847
v 0.461940 -0.831470 -0.308658
v 0.318190 -0.923880 -0.212608
v 0.162212 -0.980785 -0.108386
v 0.180240 0.980785 -0.074658
v 0.353554 0.923880 -0.146447
v 0.513280 0.831470 -0.212607
v 0.653281 0.707107 -0.270598
v 0.768178 0.555570 -0.318190
v 0.853553 0.382683 -0.353553
v 0.906127 0.195090 -0.375330
v 0.923879 -0.000000 -0.382683
v 0.906127 -0.195090 -0.375330
v 0.853553 -0.382683 -0.353553
v 0.768178 -0.555570 -0.318190
v 0.653281 -0.707107 -0.270598
v 0.513280 -0.831470 -0.212607
v 0.353554 -0.923880 -0.146447
v 0.180240 -0.980785 -0.074658
v 0.191342 0.980785 -0.038060
v 0.375330 0.923880 -0.074658
v 0.544895 0.831470 -0.108386
v 0.693520 0.707107 -0.137950
v 0.815493 0.555570 -0.162212
v 0.906127 0.382683 -0.180240
v 0.961940 0.195090 -0.191342
v 0.980785 -0.000000 -0.195090
v 0.961940 -0.195090 -0.191342
v 0.906128 -0.382683 -0.180240
v 0.815493 -0.555570 -0.162212
v 0.693520 -0.707107 -0.137950
v 0.544895 -0.831470 -0.108386
v 0.375330 -0.923880 -0.074658
v 0.191342 -0.980785 -0.038060
v 0.195090 0.980785 0.000000
v 0.382684 0.923880 0.000000
v 0.555570 0.831470 0.000000
v 0.707107 0.707107 0.000000
v 0.831469 0.555570 0.000000
v 0.923879 0.382683 0.000000
v 0.980785 0.195090 0.000000
v 1.000000 -0.000000 0.000000
v 0.980785 -0.195090 0.000000
v 0.923880 -0.382683 0.000000
v 0.831469 -0.555570 0.000000
v 0.707107 -0.707107 0.000000
v 0.555570 -0.831470 0.000000
v 0.382684 -0.923880 0.000000
v 0.195090 -0.980785 0.000000
v 0.191342 0.980785 0.038060
v 0.375330 0.923880 0.074658
v 0.544895 0.831470 0.108386
v 0.693520 0.707107 0.137950
v 0.815493 0.555570 0.162212
v 0.906127 0.382683 0.180240
v 0.961940 0.195090 0.191342
v 0.980785 -0.000000 0.195090
v 0.961940 -0.195090 0.191342
v 0.906127 -0.382683 0.180240
v 0.815493 -0.555570 0.162212
v 0.693520 -0.707107 0.137950
v 0.544895 -0.831470 0.108386
v 0.375330 -0.923880 0.074658
v 0.191342 -0.980785 0.038060
v 0.180240 0.980785 0.074658
v 0.353553 0.923880 0.146447
v 0.513280 0.831470 0.212608
v 0.653281 0.707107 0.270598
v 0.768178 0.555570 0.318190
v 0.853553 0.382683 0.353553
v 0.906127 0.195090 0.375330
v 0.923879 -0.000000 0.382683
v 0.906127 -0.195090 0.375330
v 0.853553 -0.382683 0.353554
v 0.768178 -0.555570 0.318190
v 0.653281 -0.707107 0.270598
v 0.513280 -0.831470 0.212608
v 0.353554 -0.923880 0.146447
v 0.180240 -0.980785 0.074658
v 0.162212 0.980785 0.108386
v 0.318190 0.923880 0.212608
v 0.461940 0.831470 0.308658
v 0.587938 0.707107 0.392847
v 0.691341 0.555570 0.461940
v 0.768178 0.382683 0.513280
v 0.815493 0.195090 0.544895
v 0.831469 -0.000000 0.555570
v 0.815493 -0.195090 0.544895
v 0.768178 -0.382683 0.513280
v 0.691342 -0.555570 0.461940
v 0.587938 -0.707107 0.392847
v 0.461940 -0.831470 0.308658
v 0.318190 -0.923880 0.212608
v 0.162212 -0.980785 0.108386
v 0.137950 0.980785 0.137950
v 0.270598 0.923880 0.270598
v 0.392847 0.831470 0.392847
v 0.500000 0.707107 0.500000
v 0.587938 0.555570 0.587938
v 0.653281 0.382683 0.653281
v 0.693520 0.195090 0.693520
v 0.707106 -0.000000 0.707107
v 0.693520 -0.195090 0.693520
v 0.653281 -0.382683 0.653282
v 0.587938 -0.555570 0.587938
v 0.500000 -0.707107 0.500000
v 0.392847 -0.831470 0.392847
v 0.270598 -0.923880 0.270598
v 0.137950 -0.980785 0.137950
v 0.108386 0.980785 0.162212
v 0.212608 0.923880 0.318190
v 0.308658 0.831470 0.461940
v 0.392847 0.707107 0.587938
v 0.461940 0.555570 0.691342
v 0.513280 0.382683 0.768178
v 0.544895 0.195090 0.815493
v 0.555570 -0.000000 0.831469
v 0.544895 -0.195090 0.815493
v 0.513280 -0.382683 0.768178
v 0.461940 -0.555570 0.691342
v 0.392847 -0.707107 0.587938
v 0.308658 -0.831470 0.461940
v 0.212608 -0.923880 0.318190
v 0.108386 -0.980785 0.162212
v 0.074658 0.980785 0.180240
v 0.146447 0.923880 0.353554
v 0.212607 0.831470 0.513280
v 0.270598 0.707107 0.653281
v 0.318190 0.555570 0.768178
v 0.353553 0.382683 0.853553
v 0.375330 0.195090 0.906127
v 0.382683 -0.000000 0.923879
v 0.375330 -0.195090 0.906127
v 0.353553 -0.382683 0.853553
v 0.318190 -0.555570 0.768178
v 0.270598 -0.707107 0.653281
v 0.212607 -0.831470 0.513280
v 0.146447 -0.923880 0.353554
v 0.074658 -0.980785 0.180240
v 0.038060 0.980785 0.191342
v 0.074658 0.923880 0.375330
v 0.108386 0.831470 0.544895
v 0.137950 0.707107 0.693520
v 0.162212 0.555570 0.815493
v 0.180240 0.382683 0.906127
v 0.191342 0.195090 0.961939
v 0.195090 -0.000000 0.980785
v 0.191342 -0.195090 0.961939
v 0.180240 -0.382683 0.906127
v 0.162212 -0.555570 0.815493
v 0.137950 -0.707107 0.693520
v 0.108386 -0.831470 0.544895
v 0.074658 -0.923880 0.375330
v 0.038060 -0.980785 0.191342
v 0.000000 0.980785 0.195090
v -0.000000 0.923880 0.382684
v -0.000000 0.831470 0.555570
v 0.000000 0.707107 0.707107
v -0.000000 0.555570 0.831469
v 0.000000 0.382683 0.923879
v -0.000000 0.195090 0.980785
v -0.000000 -0.000000 0.999999
v -0.000000 -0.195090 0.980785
v -0.000000 -0.382683 0.923880
v -0.000000 -0.555570 0.831469
v 0.000000 -0.707107 0.707107
v -0.000000 -0.831470 0.555570
v 0.000000 -0.923880 0.382684
v -0.000000 -0.980785 0.195090
v -0.038060 0.980785 0.191342
v -0.074658 0.923880 0.375330
v -0.108386 0.831470 0.544895
v -0.137950 0.707107 0.693520
v -0.162212 0.555570 0.815493
v -0.180240 0.382683 0.906127
v -0.191342 0.195090 0.961939
v -0.195090 -0.000000 0.980785
v -0.191342 -0.195090 0.961939
v -0.180240 -0.382683 0.906127
v -0.162212 -0.555570 0.815493
v -0.137950 -0.707107 0.693520
v -0.108386 -0.831470 0.544895
v -0.074658 -0.923880 0.375330
v -0.038060 -0.980785 0.191342
v -0.074658 0.980785 0.180240
v -0.146447 0.923880 0.353553
v -0.212608 0.831470 0.513280
v -0.270598 0.707107 0.653281
v -0.318189 0.555570 0.768177
v -0.353553 0.382683 0.853553
v -0.375330 0.195090 0.906127
v -0.382683 -0.000000 0.923879
v -0.375330 -0.195090 0.906127
v -0.353553 -0.382683 0.853553
v -0.318190 -0.555570 0.768178
v -0.270598 -0.707107 0.653281
v -0.212608 -0.831470 0.513280
v -0.146447 -0.923880 0.353553
v -0.074658 -0.980785 0.180240
v -0.108386 0.980785 0.162212
v -0.212608 0.923880 0.318190
v -0.308658 0.831470 0.461940
v -0.392847 0.707107 0.587938
v -0.461940 0.555570 0.691341
v -0.513280 0.382683 0.768178
v -0.544895 0.195090 0.815493
v -0.555570 -0.000000 0.831469
v -0.544895 -0.195090 0.815493
v -0.513280 -0.382683 0.768178
v -0.461940 -0.555570 0.691342
v -0.392847 -0.707107 0.587938
v -0.308658 -0.831470 0.461940
v -0.212608 -0.923880 0.318190
v -0.108386 -0.980785 0.162212
v -0.137950 0.980785 0.137950
v -0.270598 0.923880 0.270598
v -0.392847 0.831470 0.392847
v -0.500000 0.707107 0.500000
v -0.587937 0.555570 0.587938
v -0.653281 0.382683 0.653281
v -0.693520 0.195090 0.693520
v -0.707106 -0.000000 0.707106
v -0.693520 -0.195090 0.693520
v -0.653281 -0.382683 0.653281
v -0.587938 -0.555570 0.587938
v -0.500000 -0.707107 0.500000
v -0.392847 -0.831470 0.392847
v -0.270598 -0.923880 0.270598
v -0.137950 -0.980785 0.137950
v -0.162212 0.980785 0.108386
v -0.318190 0.923880 0.212608
v -0.461940 0.831470 0.308658
v -0.587938 0.707107 0.392847
v -0.691341 0.555570 0.461940
v -0.768178 0.382683 0.513280
v -0.815493 0.195090 0.544895
v -0.831469 -0.000000 0.555569
v -0.815493 -0.195090 0.544895
v -0.768178 -0.382683 0.513280
v -0.691341 -0.555570 0.461940
v -0.587938 -0.707107 0.392847
v -0.461940 -0.831470 0.308658
v -0.318190 -0.923880 0.212608
v -0.162212 -0.980785 0.108386
v -0.000000 1.000000 0.000000
v -0.180240 0.980785 0.074658
v -0.353553 0.923880 0.146447
v -0.513280 0.831470 0.212607
v -0.653281 0.707107 0.270598
v -0.768177 0.555570 0.318190
v -0.853553 0.382683 0.353553
v -0.906127 0.195090 0.375330
v -0.923879 -0.000000 0.382683
v -0.906127 -0.195090 0.375330
v -0.853553 -0.382683 0.353553
v -0.768177 -0.555570 0.318190
v -0.653281 -0.707107 0.270598
v -0.513280 -0.831470 0.212607
v -0.353553 -0.923880 0.146447
v -0.180240 -0.980785 0.074658
v -0.191342 0.980785 0.038060
v -0.375330 0.923880 0.074658
v -0.544895 0.831470 0.108386
v -0.693520 0.707107 0.137950
v -0.815493 0.555570 0.162212
v -0.906127 0.382683 0.180240
v -0.961939 0.195090 0.191342
v -0.980784 -0.000000 0.195090
v -0.961939 -0.195090 0.191342
v -0.906127 -0.382683 0.180240
v -0.815493 -0.555570 0.162212
v -0.693520 -0.707107 0.137950
v -0.544895 -0.831470 0.108386
v -0.375330 -0.923880 0.074658
v -0.191342 -0.980785 0.038060
v -0.195090 0.980785 0.000000
v -0.382683 0.923880 0.000000
v -0.555570 0.831470 -0.000000
v -0.707107 0.707107 0.000000
v -0.831469 0.555570 0.000000
v -0.923879 0.382683 0.000000
v -0.980785 0.195090 -0.000000
v -0.999999 -0.000000 -0.000000
v -0.980785 -0.195090 -0.000000
v -0.923879 -0.382683 -0.000000
v -0.831469 -0.555570 0.000000
v -0.707107 -0.707107 0.000000
v -0.555570 -0.831470 -0.000000
v -0.382683 -0.923880 0.000000
v -0.195090 -0.980785 0.000000
v -0.191342 0.980785 -0.038060
v -0.375330 0.923880 -0.074658
v -0.544895 0.831470 -0.108386
v -0.693520 0.707107 -0.137950
v -0.815493 0.555570 -0.162212
v -0.906127 0.382683 -0.180240
v -0.961939 0.195090 -0.191342
v -0.980784 -0.000000 -0.195091
v -0.961939 -0.195090 -0.191342
v -0.906127 -0.382683 -0.180240
v -0.815493 -0.555570 -0.162212
v -0.693520 -0.707107 -0.137950
v -0.544895 -0.831470 -0.108386
v -0.375330 -0.923880 -0.074658
v -0.191342 -0.980785 -0.038060
v -0.180240 0.980785 -0.074658
v -0.353553 0.923880 -0.146447
v -0.513280 0.831470 -0.212607
v -0.653281 0.707107 -0.270598
v -0.768177 0.555570 -0.318189
v -0.853553 0.382683 -0.353553
v -0.906127 0.195090 -0.375330
v -0.923878 -0.000000 -0.382683
v -0.906127 -0.195090 -0.375330
v -0.853553 -0.382683 -0.353553
v -0.768177 -0.555570 -0.318189
v -0.653281 -0.707107 -0.270598
v -0.513280 -0.831470 -0.212607
v -0.353553 -0.923880 -0.146446
v -0.180240 -0.980785 -0.074658
v -0.162212 0.980785 -0.108386
v -0.318189 0.923880 -0.212607
v -0.461939 0.831470 -0.308658
v -0.587938 0.707107 -0.392847
v -0.691341 0.555570 -0.461939
v -0.768177 0.382683 -0.513280
v -0.815493 0.195090 -0.544895
v -0.831469 -0.000000 -0.555570
v -0.815493 -0.195090 -0.544895
v -0.768177 -0.382683 -0.513280
v -0.691341 -0.555570 -0.461939
v -0.587938 -0.707107 -0.392847
v -0.461939 -0.831470 -0.308658
v -0.318189 -0.923880 -0.212607
v -0.162212 -0.980785 -0.108386
v -0.137950 0.980785 -0.137950
v -0.270598 0.923880 -0.270598
v -0.392847 0.831470 -0.392847
v -0.500000 0.707107 -0.500000
v -0.587937 0.555570 -0.587937
v -0.653281 0.382683 -0.653281
v -0.693519 0.195090 -0.693520
v -0.707106 -0.000000 -0.707106
v -0.693519 -0.195090 -0.693520
v -0.653281 -0.382683 -0.653281
v -0.587937 -0.555570 -0.587937
v -0.500000 -0.707107 -0.500000
v -0.392847 -0.831470 -0.392847
v -0.270598 -0.923880 -0.270598
v -0.137950 -0.980785 -0.137950
v -0.108386 0.980785 -0.162212
v -0.212607 0.923880 -0.318189
v -0.308658 0.831470 -0.461939
v -0.392847 0.707107 -0.587937
v -0.461939 0.555570 -0.691341
v -0.513280 0.382683 -0.768177
v -0.544895 0.195090 -0.815493
v -0.555569 -0.000000 -0.831469
v -0.544895 -0.195090 -0.815493
v -0.513280 -0.382683 -0.768178
v -0.461939 -0.555570 -0.691341
v -0.392847 -0.707107 -0.587937
v -0.308658 -0.831470 -0.461939
v -0.212607 -0.923880 -0.318189
v -0.108386 -0.980785 -0.162212
v -0.074658 0.980785 -0.180240
v -0.146446 0.923880 -0.353553
v -0.212607 0.831470 -0.513279
v -0.270598 0.707107 -0.653281
v -0.318189 0.555570 -0.768177
v -0.353553 0.382683 -0.853553
v -0.375330 0.195090 -0.906127
v -0.382683 -0.000000 -0.923879
v -0.375330 -0.195090 -0.906127
v -0.353553 -0.382683 -0.853553
v -0.318189 -0.555570 -0.768177
v -0.270598 -0.707107 -0.653281
v -0.212607 -0.831470 -0.513279
v -0.146446 -0.923880 -0.353553
v -0.074658 -0.980785 -0.180240
v -0.038060 0.980785 -0.191342
v -0.074658 0.923880 -0.375330
v -0.108386 0.831470 -0.544895
v -0.137950 0.707107 -0.693520
v -0.162212 0.555570 -0.815493
v -0.180240 0.382683 -0.906127
v -0.191341 0.195090 -0.961939
v -0.195090 -0.000000 -0.980784
v -0.191341 -0.195090 -0.961939
v -0.180240 -0.382683 -0.906127
v -0.162212 -0.555570 -0.815493
v -0.137950 -0.707107 -0.693520
v -0.108386 -0.831470 -0.544895
v -0.074658 -0.923880 -0.375330
v -0.038060 -0.980785 -0.191342
v 0.000001 -0.000000 -0.999999
v 0.000000 -0.195090 -0.980785
v 0.000000 -0.382683 -0.923879
v 0.000000 -0.923880 -0.382683
v 0.000000 -0.980785 -0.195090
v 0.000000 -1.000000 0.000000
s off
f 9 23 10
f 5 16 6
f 10 24 480
f 6 17 7
f 480 25 481
f 477 17 18
f 1 326 11
f 482 481 25
f 477 19 478
f 1 12 2
f 478 20 479
f 2 13 3
f 479 21 8
f 3 14 4
f 9 21 22
f 4 15 5
f 21 37 22
f 15 29 30
f 22 38 23
f 15 31 16
f 23 39 24
f 17 31 32
f 24 40 25
f 18 32 33
f 11 326 26
f 482 25 40
f 18 34 19
f 11 27 12
f 19 35 20
f 12 28 13
f 20 36 21
f 13 29 14
f 26 326 41
f 482 40 55
f 33 49 34
f 26 42 27
f 34 50 35
f 27 43 28
f 36 50 51
f 28 44 29
f 36 52 37
f 29 45 30
f 37 53 38
f 30 46 31
f 38 54 39
f 31 47 32
f 39 55 40
f 32 48 33
f 44 60 45
f 53 67 68
f 45 61 46
f 53 69 54
f 46 62 47
f 55 69 70
f 48 62 63
f 41 326 56
f 482 55 70
f 48 64 49
f 41 57 42
f 50 64 65
f 43 57 58
f 51 65 66
f 43 59 44
f 52 66 67
f 63 79 64
f 57 71 72
f 65 79 80
f 57 73 58
f 65 81 66
f 58 74 59
f 66 82 67
f 60 74 75
f 68 82 83
f 60 76 61
f 69 83 84
f 61 77 62
f 69 85 70
f 63 77 78
f 56 326 71
f 482 70 85
f 83 97 98
f 75 91 76
f 84 98 99
f 77 91 92
f 85 99 100
f 78 92 93
f 71 326 86
f 482 85 100
f 78 94 79
f 71 87 72
f 79 95 80
f 72 88 73
f 80 96 81
f 73 89 74
f 81 97 82
f 74 90 75
f 95 109 110
f 87 103 88
f 95 111 96
f 88 104 89
f 96 112 97
f 90 104 105
f 98 112 113
f 90 106 91
f 99 113 114
f 92 106 107
f 99 115 100
f 93 107 108
f 86 326 101
f 482 100 115
f 93 109 94
f 86 102 87
f 113 129 114
f 107 121 122
f 114 130 115
f 108 122 123
f 101 326 116
f 482 115 130
f 108 124 109
f 102 116 117
f 110 124 125
f 102 118 103
f 110 126 111
f 103 119 104
f 111 127 112
f 105 119 120
f 113 127 128
f 105 121 106
f 118 132 133
f 125 141 126
f 118 134 119
f 126 142 127
f 120 134 135
f 128 142 143
f 120 136 121
f 128 144 129
f 122 136 137
f 129 145 130
f 123 137 138
f 116 326 131
f 482 130 145
f 123 139 124
f 117 131 132
f 125 139 140
f 137 151 152
f 144 160 145
f 138 152 153
f 131 326 146
f 482 145 160
f 138 154 139
f 131 147 132
f 140 154 155
f 133 147 148
f 140 156 141
f 133 149 134
f 141 157 142
f 134 150 135
f 143 157 158
f 135 151 136
f 144 158 159
f 155 171 156
f 148 164 149
f 156 172 157
f 149 165 150
f 158 172 173
f 150 166 151
f 158 174 159
f 152 166 167
f 160 174 175
f 153 167 168
f 146 326 161
f 482 160 175
f 153 169 154
f 147 161 162
f 155 169 170
f 147 163 148
f 174 190 175
f 168 182 183
f 161 326 176
f 482 175 190
f 168 184 169
f 161 177 162
f 169 185 170
f 162 178 163
f 170 186 171
f 163 179 164
f 172 186 187
f 165 179 180
f 172 188 173
f 165 181 166
f 173 189 174
f 166 182 167
f 178 194 179
f 186 202 187
f 180 194 195
f 188 202 203
f 180 196 181
f 189 203 204
f 182 196 197
f 189 205 190
f 183 197 198
f 176 326 191
f 482 190 205
f 183 199 184
f 177 191 192
f 184 200 185
f 177 193 178
f 185 201 186
f 198 212 213
f 191 326 206
f 482 205 220
f 198 214 199
f 191 207 192
f 200 214 215
f 192 208 193
f 200 216 201
f 193 209 194
f 201 217 202
f 195 209 210
f 203 217 218
f 195 211 196
f 203 219 204
f 197 211 212
f 205 219 220
f 216 232 217
f 210 224 225
f 218 232 233
f 210 226 211
f 218 234 219
f 212 226 227
f 220 234 235
f 213 227 228
f 206 326 221
f 482 220 235
f 213 229 214
f 206 222 207
f 215 229 230
f 208 222 223
f 215 231 216
f 208 224 209
f 482 235 250
f 228 244 229
f 221 237 222
f 230 244 245
f 223 237 238
f 230 246 231
f 223 239 224
f 231 247 232
f 225 239 240
f 233 247 248
f 225 241 226
f 233 249 234
f 227 241 242
f 235 249 250
f 228 242 243
f 221 326 236
f 248 262 263
f 240 256 241
f 248 264 249
f 242 256 257
f 249 265 250
f 243 257 258
f 236 326 251
f 482 250 265
f 243 259 244
f 236 252 237
f 245 259 260
f 237 253 238
f 245 261 246
f 238 254 239
f 247 261 262
f 240 254 255
f 251 267 252
f 260 274 275
f 252 268 253
f 260 276 261
f 253 269 254
f 261 277 262
f 255 269 270
f 263 277 278
f 255 271 256
f 263 279 264
f 257 271 272
f 264 280 265
f 258 272 273
f 251 326 266
f 482 265 280
f 258 274 259
f 271 285 286
f 278 294 279
f 272 286 287
f 280 294 295
f 273 287 288
f 266 326 281
f 482 280 295
f 273 289 274
f 266 282 267
f 275 289 290
f 267 283 268
f 275 291 276
f 268 284 269
f 276 292 277
f 270 284 285
f 278 292 293
f 290 304 305
f 282 298 283
f 290 306 291
f 283 299 284
f 291 307 292
f 284 300 285
f 293 307 308
f 286 300 301
f 293 309 294
f 287 301 302
f 294 310 295
f 288 302 303
f 281 326 296
f 482 295 310
f 288 304 289
f 281 297 282
f 309 323 324
f 302 316 317
f 309 325 310
f 303 317 318
f 296 326 311
f 482 310 325
f 303 319 304
f 297 311 312
f 305 319 320
f 298 312 313
f 305 321 306
f 298 314 299
f 306 322 307
f 299 315 300
f 308 322 323
f 301 315 316
f 312 329 313
f 320 337 321
f 313 330 314
f 321 338 322
f 314 331 315
f 323 338 339
f 316 331 332
f 323 340 324
f 317 332 333
f 324 341 325
f 318 333 334
f 311 326 327
f 482 325 341
f 318 335 319
f 311 328 312
f 320 335 336
f 333 347 348
f 341 355 356
f 334 348 349
f 327 326 342
f 482 341 356
f 334 350 335
f 327 343 328
f 336 350 351
f 328 344 329
f 336 352 337
f 329 345 330
f 337 353 338
f 330 346 331
f 338 354 339
f 332 346 347
f 339 355 340
f 351 367 352
f 344 360 345
f 352 368 353
f 346 360 361
f 354 368 369
f 347 361 362
f 355 369 370
f 348 362 363
f 356 370 371
f 349 363 364
f 342 326 357
f 482 356 371
f 349 365 350
f 342 358 343
f 351 365 366
f 343 359 344
f 371 385 386
f 364 378 379
f 357 326 372
f 482 371 386
f 364 380 365
f 357 373 358
f 366 380 381
f 358 374 359
f 366 382 367
f 359 375 360
f 368 382 383
f 360 376 361
f 369 383 384
f 362 376 377
f 370 384 385
f 363 377 378
f 382 398 383
f 375 391 376
f 384 398 399
f 377 391 392
f 384 400 385
f 378 392 393
f 385 401 386
f 379 393 394
f 372 326 387
f 482 386 401
f 379 395 380
f 372 388 373
f 381 395 396
f 373 389 374
f 381 397 382
f 374 390 375
f 387 326 402
f 482 401 416
f 394 410 395
f 387 403 388
f 396 410 411
f 388 404 389
f 396 412 397
f 389 405 390
f 397 413 398
f 391 405 406
f 399 413 414
f 392 406 407
f 400 414 415
f 393 407 408
f 400 416 401
f 394 408 409
f 405 421 406
f 414 428 429
f 407 421 422
f 414 430 415
f 408 422 423
f 416 430 431
f 409 423 424
f 402 326 417
f 482 416 431
f 409 425 410
f 402 418 403
f 410 426 411
f 403 419 404
f 411 427 412
f 404 420 405
f 412 428 413
f 424 440 425
f 417 433 418
f 425 441 426
f 419 433 434
f 426 442 427
f 419 435 420
f 427 443 428
f 420 436 421
f 429 443 444
f 422 436 437
f 429 445 430
f 423 437 438
f 431 445 446
f 424 438 439
f 417 326 432
f 482 431 446
f 444 458 459
f 437 451 452
f 444 460 445
f 438 452 453
f 445 461 446
f 439 453 454
f 432 326 447
f 482 446 461
f 439 455 440
f 432 448 433
f 440 456 441
f 433 449 434
f 441 457 442
f 434 450 435
f 442 458 443
f 436 450 451
f 447 463 448
f 455 471 456
f 448 464 449
f 456 472 457
f 449 465 450
f 457 473 458
f 450 466 451
f 459 473 474
f 452 466 467
f 459 475 460
f 453 467 468
f 460 476 461
f 454 468 469
f 447 326 462
f 482 461 476
f 454 470 455
f 467 5 6
f 474 480 475
f 468 6 7
f 475 481 476
f 469 7 477
f 462 326 1
f 482 476 481
f 469 478 470
f 463 1 2
f 470 479 471
f 464 2 3
f 471 8 472
f 465 3 4
f 472 9 473
f 466 4 5
f 473 10 474
f 9 22 23
f 5 15 16
f 10 23 24
f 6 16 17
f 480 24 25
f 477 7 17
f 477 18 19
f 1 11 12
f 478 19 20
f 2 12 13
f 479 20 21
f 3 13 14
f 9 8 21
f 4 14 15
f 21 36 37
f 15 14 29
f 22 37 38
f 15 30 31
f 23 38 39
f 17 16 31
f 24 39 40
f 18 17 32
f 18 33 34
f 11 26 27
f 19 34 35
f 12 27 28
f 20 35 36
f 13 28 29
f 33 48 49
f 26 41 42
f 34 49 50
f 27 42 43
f 36 35 50
f 28 43 44
f 36 51 52
f 29 44 45
f 37 52 53
f 30 45 46
f 38 53 54
f 31 46 47
f 39 54 55
f 32 47 48
f 44 59 60
f 53 52 67
f 45 60 61
f 53 68 69
f 46 61 62
f 55 54 69
f 48 47 62
f 48 63 64
f 41 56 57
f 50 49 64
f 43 42 57
f 51 50 65
f 43 58 59
f 52 51 66
f 63 78 79
f 57 56 71
f 65 64 79
f 57 72 73
f 65 80 81
f 58 73 74
f 66 81 82
f 60 59 74
f 68 67 82
f 60 75 76
f 69 68 83
f 61 76 77
f 69 84 85
f 63 62 77
f 83 82 97
f 75 90 91
f 84 83 98
f 77 76 91
f 85 84 99
f 78 77 92
f 78 93 94
f 71 86 87
f 79 94 95
f 72 87 88
f 80 95 96
f 73 88 89
f 81 96 97
f 74 89 90
f 95 94 109
f 87 102 103
f 95 110 111
f 88 103 104
f 96 111 112
f 90 89 104
f 98 97 112
f 90 105 106
f 99 98 113
f 92 91 106
f 99 114 115
f 93 92 107
f 93 108 109
f 86 101 102
f 113 128 129
f 107 106 121
f 114 129 130
f 108 107 122
f 108 123 124
f 102 101 116
f 110 109 124
f 102 117 118
f 110 125 126
f 103 118 119
f 111 126 127
f 105 104 119
f 113 112 127
f 105 120 121
f 118 117 132
f 125 140 141
f 118 133 134
f 126 141 142
f 120 119 134
f 128 127 142
f 120 135 136
f 128 143 144
f 122 121 136
f 129 144 145
f 123 122 137
f 123 138 139
f 117 116 131
f 125 124 139
f 137 136 151
f 144 159 160
f 138 137 152
f 138 153 154
f 131 146 147
f 140 139 154
f 133 132 147
f 140 155 156
f 133 148 149
f 141 156 157
f 134 149 150
f 143 142 157
f 135 150 151
f 144 143 158
f 155 170 171
f 148 163 164
f 156 171 172
f 149 164 165
f 158 157 172
f 150 165 166
f 158 173 174
f 152 151 166
f 160 159 174
f 153 152 167
f 153 168 169
f 147 146 161
f 155 154 169
f 147 162 163
f 174 189 190
f 168 167 182
f 168 183 184
f 161 176 177
f 169 184 185
f 162 177 178
f 170 185 186
f 163 178 179
f 172 171 186
f 165 164 179
f 172 187 188
f 165 180 181
f 173 188 189
f 166 181 182
f 178 193 194
f 186 201 202
f 180 179 194
f 188 187 202
f 180 195 196
f 189 188 203
f 182 181 196
f 189 204 205
f 183 182 197
f 183 198 199
f 177 176 191
f 184 199 200
f 177 192 193
f 185 200 201
f 198 197 212
f 198 213 214
f 191 206 207
f 200 199 214
f 192 207 208
f 200 215 216
f 193 208 209
f 201 216 217
f 195 194 209
f 203 202 217
f 195 210 211
f 203 218 219
f 197 196 211
f 205 204 219
f 216 231 232
f 210 209 224
f 218 217 232
f 210 225 226
f 218 233 234
f 212 211 226
f 220 219 234
f 213 212 227
f 213 228 229
f 206 221 222
f 215 214 229
f 208 207 222
f 215 230 231
f 208 223 224
f 228 243 244
f 221 236 237
f 230 229 244
f 223 222 237
f 230 245 246
f 223 238 239
f 231 246 247
f 225 224 239
f 233 232 247
f 225 240 241
f 233 248 249
f 227 226 241
f 235 234 249
f 228 227 242
f 248 247 262
f 240 255 256
f 248 263 264
f 242 241 256
f 249 264 265
f 243 242 257
f 243 258 259
f 236 251 252
f 245 244 259
f 237 252 253
f 245 260 261
f 238 253 254
f 247 246 261
f 240 239 254
f 251 266 267
f 260 259 274
f 252 267 268
f 260 275 276
f 253 268 269
f 261 276 277
f 255 254 269
f 263 262 277
f 255 270 271
f 263 278 279
f 257 256 271
f 264 279 280
f 258 257 272
f 258 273 274
f 271 270 285
f 278 293 294
f 272 271 286
f 280 279 294
f 273 272 287
f 273 288 289
f 266 281 282
f 275 274 289
f 267 282 283
f 275 290 291
f 268 283 284
f 276 291 292
f 270 269 284
f 278 277 292
f 290 289 304
f 282 297 298
f 290 305 306
f 283 298 299
f 291 306 307
f 284 299 300
f 293 292 307
f 286 285 300
f 293 308 309
f 287 286 301
f 294 309 310
f 288 287 302
f 288 303 304
f 281 296 297
f 309 308 323
f 302 301 316
f 309 324 325
f 303 302 317
f 303 318 319
f 297 296 311
f 305 304 319
f 298 297 312
f 305 320 321
f 298 313 314
f 306 321 322
f 299 314 315
f 308 307 322
f 301 300 315
f 312 328 329
f 320 336 337
f 313 329 330
f 321 337 338
f 314 330 331
f 323 322 338
f 316 315 331
f 323 339 340
f 317 316 332
f 324 340 341
f 318 317 333
f 318 334 335
f 311 327 328
f 320 319 335
f 333 332 347
f 341 340 355
f 334 333 348
f 334 349 350
f 327 342 343
f 336 335 350
f 328 343 344
f 336 351 352
f 329 344 345
f 337 352 353
f 330 345 346
f 338 353 354
f 332 331 346
f 339 354 355
f 351 366 367
f 344 359 360
f 352 367 368
f 346 345 360
f 354 353 368
f 347 346 361
f 355 354 369
f 348 347 362
f 356 355 370
f 349 348 363
f 349 364 365
f 342 357 358
f 351 350 365
f 343 358 359
f 371 370 385
f 364 363 378
f 364 379 380
f 357 372 373
f 366 365 380
f 358 373 374
f 366 381 382
f 359 374 375
f 368 367 382
f 360 375 376
f 369 368 383
f 362 361 376
f 370 369 384
f 363 362 377
f 382 397 398
f 375 390 391
f 384 383 398
f 377 376 391
f 384 399 400
f 378 377 392
f 385 400 401
f 379 378 393
f 379 394 395
f 372 387 388
f 381 380 395
f 373 388 389
f 381 396 397
f 374 389 390
f 394 409 410
f 387 402 403
f 396 395 410
f 388 403 404
f 396 411 412
f 389 404 405
f 397 412 413
f 391 390 405
f 399 398 413
f 392 391 406
f 400 399 414
f 393 392 407
f 400 415 416
f 394 393 408
f 405 420 421
f 414 413 428
f 407 406 421
f 414 429 430
f 408 407 422
f 416 415 430
f 409 408 423
f 409 424 425
f 402 417 418
f 410 425 426
f 403 418 419
f 411 426 427
f 404 419 420
f 412 427 428
f 424 439 440
f 417 432 433
f 425 440 441
f 419 418 433
f 426 441 442
f 419 434 435
f 427 442 443
f 420 435 436
f 429 428 443
f 422 421 436
f 429 444 445
f 423 422 437
f 431 430 445
f 424 423 438
f 444 443 458
f 437 436 451
f 444 459 460
f 438 437 452
f 445 460 461
f 439 438 453
f 439 454 455
f 432 447 448
f 440 455 456
f 433 448 449
f 441 456 457
f 434 449 450
f 442 457 458
f 436 435 450
f 447 462 463
f 455 470 471
f 448 463 464
f 456 471 472
f 449 464 465
f 457 472 473
f 450 465 466
f 459 458 473
f 452 451 466
f 459 474 475
f 453 452 467
f 460 475 476
f 454 453 468
f 454 469 470
f 467 466 5
f 474 10 480
f 468 467 6
f 475 480 481
f 469 468 7
f 469 477 478
f 463 462 1
f 470 478 479
f 464 463 2
f 471 479 8
f 465 464 3
f 472 8 9
f 466 465 4
f 473 9 10
